
  ${AnsiColor.BLUE} .########.##.....##.########.........##..######....${AnsiColor.BRIGHT_MAGENTA}...########..########.##.....##..#######.
  ${AnsiColor.BLUE} .##........##...##.....##............##.##....##...${AnsiColor.BRIGHT_MAGENTA}...##.....##.##.......###...###.##.....##
  ${AnsiColor.BLUE} .##.........##.##......##............##.##.........${AnsiColor.BRIGHT_MAGENTA}...##.....##.##.......####.####.##.....##
  ${AnsiColor.BLUE} .######......###.......##............##..######....${AnsiColor.BRIGHT_MAGENTA}...##.....##.######...##.###.##.##.....##
  ${AnsiColor.BLUE} .##.........##.##......##......##....##.......##...${AnsiColor.BRIGHT_MAGENTA}...##.....##.##.......##.....##.##.....##
  ${AnsiColor.BLUE} .##........##...##.....##......##....##.##....##...${AnsiColor.BRIGHT_MAGENTA}...##.....##.##.......##.....##.##.....##
  ${AnsiColor.BLUE} .########.##.....##....##.......######...######....${AnsiColor.BRIGHT_MAGENTA}...########..########.##.....##..#######.

${AnsiColor.DEFAULT}
